…
#### 3. Calculate and report the mean and median of the total number of steps taken per day.  

```r
mmActivity <- activityData %>% group_by(date) %>% summarise_each(funs(median, mean))
mmActivity[,c(1,2,4)]
```

```
## # A tibble: 61 × 3
##          date steps_median steps_mean
##        <date>        <dbl>      <dbl>
## 1  2012-10-01           NA         NA
## 2  2012-10-02            0    0.43750
## 3  2012-10-03            0   39.41667
## 4  2012-10-04            0   42.06944
## 5  2012-10-05            0   46.15972
## 6  2012-10-06            0   53.54167
## 7  2012-10-07            0   38.24653
## 8  2012-10-08           NA         NA
## 9  2012-10-09            0   44.48264
## 10 2012-10-10            0   34.37500
## # ... with 51 more rows
```
…
```r
## Calculate the new mean and median, and report them out
mmActivity2 <- activityData2 %>% group_by(date) %>% summarise_each(funs(median, mean))
mmActivity2[,c(1,2,4)]
```

```
## # A tibble: 61 × 3
##          date steps_median steps_mean
##        <date>        <dbl>      <dbl>
## 1  2012-10-01         33.5   36.94792
## 2  2012-10-02          0.0    0.43750
## 3  2012-10-03          0.0   39.41667
## 4  2012-10-04          0.0   42.06944
## 5  2012-10-05          0.0   46.15972
## 6  2012-10-06          0.0   53.54167
## 7  2012-10-07          0.0   38.24653
## 8  2012-10-08         33.5   36.94792
## 9  2012-10-09          0.0   44.48264
## 10 2012-10-10          0.0   34.37500
## # ... with 51 more rows
```
…
